@startuml Use Case

left to right direction

skinparam backgroundColor #DAFAF3FF


package DashBoard {
  usecase CO2_Level #palegreen;line:Red;line.dashed;text:blue
  usecase Temperature #palegreen;line:Red;line.dashed;text:blue
  usecase Humidity #palegreen;line:Red;line.dashed;text:blue
  usecase GPS_Location #palegreen;line:Red;line.dashed;text:blue
  (Decoder) --|> CO2_Level : uint16_t
  (Decoder) --|> Temperature : float
  (Decoder) --|> Humidity : uint8_t
  (Decoder) --|> GPS_Location : uint64_t
}


package node {
  usecase Measuring_CO2 #palegreen;line:Red;line.dashed;text:blue
  usecase Measuring_Temperature #palegreen;line:Red;line.dashed;text:blue
  usecase Measuring_Humidity #palegreen;line:Red;line.dashed;text:blue
  usecase GPS #palegreen;line:Red;line.dashed;text:blue
  (Encoder) <|--   Measuring_CO2 : uint16_t
  (Encoder) <|--   Measuring_Temperature : Float
  (Encoder) <|--   Measuring_Humidity : uint8_t
  (Encoder) <|--   GPS : uint64_t
}

(TheNetworkThings) <|--- Encoder : OTAA
(TheNetworkThings) ---|> Decoder

actor FireFighters as FireFighters
FireFighters --> CO2_Level 
FireFighters --> Temperature : Reading
FireFighters --> Humidity
FireFighters --> GPS_Location



@enduml